Division,WeightClassKg,Place,Name,Team,BodyweightKg,Best3SquatKg,Best3BenchKg,Best3DeadliftKg,TotalKg,Equipment,Event,Sex
Boys,51.71,1,Connor Evans,Conroe The Woodlands,51.26,92.99,61.23,117.93,272.16,Single-ply,SBD,M
Boys,55.79,2,Steven Cook,Shepherd,51.75,99.79,56.7,111.13,267.62,Single-ply,SBD,M
Boys,51.71,3,Garrett Kelso,Splendora,51.71,97.52,49.9,111.13,258.55,Single-ply,SBD,M
Boys,51.71,4,Trent Taylor,Shepherd,49.9,95.25,56.7,92.99,244.94,Single-ply,SBD,M
Boys,51.71,DQ,Ross Cowart,Huntsville,49.44,61.23,52.16,,,Single-ply,SBD,M
Boys,59.87,1,Rusty McCarthy,New Caney Porter,55.84,127.01,117.93,133.81,378.75,Single-ply,SBD,M
Boys,55.79,2,Trey Marerro,Alvin,55.52,142.88,68.04,136.08,347,Single-ply,SBD,M
Boys,55.79,3,Harley Hnatek,Splendora,55.79,133.81,61.23,142.88,337.93,Single-ply,SBD,M
Boys,55.79,4,Cody Strokos,New Caney,55.02,129.27,65.77,136.08,331.12,Single-ply,SBD,M
Boys,59.87,5,Jance Guynes,Shepherd,55.88,115.67,74.84,140.61,331.12,Single-ply,SBD,M
Boys,55.79,6,Daquwan Mark,Huntsville,54.88,120.2,47.63,142.88,310.71,Single-ply,SBD,M
Boys,55.79,7,Steven Cook,Shepherd,53.07,79.38,52.16,120.2,251.74,Single-ply,SBD,M
Boys,59.87,1,Austin Alexander,Conroe Caney Creek,59.87,181.44,97.52,174.63,453.59,Single-ply,SBD,M
Boys,59.87,2,Jeremy Charles,Willis,56.65,154.22,102.06,158.76,415.04,Single-ply,SBD,M
Boys,59.87,3,Rory Jefferson,Huntsville,59.56,142.88,77.11,149.69,369.68,Single-ply,SBD,M
Boys,59.87,4,Nick Bosheers,New Caney,56.29,124.74,65.77,117.93,308.44,Single-ply,SBD,M
Boys,74.84,1,Terrence Leonard,Conroe,67.22,174.63,113.4,179.17,467.2,Single-ply,SBD,M
Boys,67.13,2,Josh Goolsby,Huntsville,64,151.95,104.33,170.1,426.38,Single-ply,SBD,M
Boys,67.13,3,Leo Gonzalez,Alvin,60.42,131.54,97.52,167.83,396.89,Single-ply,SBD,M
Boys,74.84,4,Aaron Valadez,Huntsville,67.31,138.35,92.99,163.29,394.63,Single-ply,SBD,M
Boys,74.84,5,Tristan Groh,Splendora,67.22,147.42,90.72,142.88,381.02,Single-ply,SBD,M
Boys,67.13,6,Chris Eason,Splendora,65.32,136.08,68.04,154.22,358.34,Single-ply,SBD,M
Boys,67.13,7,Ben Dittman,New Caney,63.05,129.27,83.91,124.74,337.93,Single-ply,SBD,M
Boys,67.13,8,James Toups,Conroe The Woodlands,66.81,124.74,90.72,122.47,337.93,Single-ply,SBD,M
Boys,67.13,9,Dylan Mora,Conroe Caney Creek,62.19,120.2,81.65,122.47,324.32,Single-ply,SBD,M
Boys,67.13,10,Logan Starks,New Caney,64.86,111.13,63.5,122.47,297.1,Single-ply,SBD,M
Boys,67.13,11,Marcus Perkins,Shepherd,60.42,68.04,52.16,104.33,224.53,Single-ply,SBD,M
Boys,74.84,1,Matt Gray,Conroe,71.94,190.51,131.54,188.24,510.29,Single-ply,SBD,M
Boys,74.84,2,Richy Lyttle,New Caney Porter,67.63,192.78,111.13,192.78,496.68,Single-ply,SBD,M
Boys,74.84,3,Joesph Dittman,New Caney,71.21,161.03,122.47,174.63,458.13,Single-ply,SBD,M
Boys,74.84,4,Aj Box,Shepherd,74.43,172.37,104.33,151.95,428.64,Single-ply,SBD,M
Boys,74.84,5,Maison Jacobs,Splendora,71.8,170.1,97.52,154.22,421.84,Single-ply,SBD,M
Boys,74.84,6,Anthony Lamb,Splendora,74.48,158.76,88.45,167.83,415.04,Single-ply,SBD,M
Boys,74.84,7,Austin Denby,New Caney,74.12,165.56,97.52,149.69,412.77,Single-ply,SBD,M
Boys,74.84,8,Eloi Hernandez,Alvin,69.67,147.42,106.59,147.42,401.43,Single-ply,SBD,M
Boys,74.84,9,Anthony McMullins,Splendora,72.12,145.15,97.52,158.76,401.43,Single-ply,SBD,M
Boys,74.84,10,Edgar Chavarria,New Caney,69.9,124.74,104.33,145.15,374.21,Single-ply,SBD,M
Boys,74.84,11,Dave Bagwell,New Caney Porter,68.04,142.88,79.38,147.42,369.68,Single-ply,SBD,M
Boys,74.84,12,Luis Gallaga,Willis,74.43,127.01,79.38,145.15,351.53,Single-ply,SBD,M
Boys,74.84,13,Michael Anderson,Shepherd,72.57,129.27,70.31,136.08,335.66,Single-ply,SBD,M
Boys,74.84,14,Kyle Brennan,Conroe The Woodlands,73.94,122.47,77.11,131.54,331.12,Single-ply,SBD,M
Boys,74.84,15,John Lovelady,Willis,72.26,102.06,70.31,149.69,322.05,Single-ply,SBD,M
Boys,74.84,16,Jackson Godby,Huntsville,72.3,108.86,77.11,136.08,322.05,Single-ply,SBD,M
Boys,74.84,17,Jack Alexander,Conroe The Woodlands,69.44,111.13,72.57,122.47,306.17,Single-ply,SBD,M
Boys,74.84,18,Royce See,Shepherd,68.95,102.06,70.31,127.01,299.37,Single-ply,SBD,M
Boys,74.84,DQ,Tony Parks,New Caney,68.31,124.74,,,,Single-ply,SBD,M
Boys,82.1,1,Justin Eberly,Conroe Caney Creek,81.19,195.04,142.88,249.48,587.4,Single-ply,SBD,M
Boys,82.1,2,Taylor Faridifar,Conroe,82.1,192.78,142.88,215.46,551.11,Single-ply,SBD,M
Boys,82.1,3,David Saucedo,Shepherd,75.75,199.58,131.54,215.46,546.58,Single-ply,SBD,M
Boys,82.1,4,Jacob Cook,Splendora,78.02,210.92,124.74,192.78,528.44,Single-ply,SBD,M
Boys,82.1,5,Jimmy Hatcher,Alvin,78.2,183.7,115.67,195.04,494.42,Single-ply,SBD,M
Boys,89.81,6,Abe Fernandez,Alvin,82.28,174.63,120.2,188.24,483.08,Single-ply,SBD,M
Boys,82.1,7,Thomas Guillen,Conroe,75.3,185.97,97.52,181.44,464.93,Single-ply,SBD,M
Boys,82.1,8,Jonathan Murphy #2,Huntsville,78.02,163.29,106.59,176.9,446.79,Single-ply,SBD,M
Boys,82.1,9,Justin Cotton,Conroe Caney Creek,79.02,181.44,106.59,151.95,439.98,Single-ply,SBD,M
Boys,82.1,10,Tanner Hohman,Alvin,80.92,161.03,97.52,176.9,435.45,Single-ply,SBD,M
Boys,82.1,11,Chris Coffer,Conroe Caney Creek,76.2,147.42,99.79,145.15,392.36,Single-ply,SBD,M
Boys,82.1,12,Tamon Willis,New Caney,78.83,142.88,92.99,151.95,387.82,Single-ply,SBD,M
Boys,82.1,13,Josh Fleming,Alvin,81.92,145.15,77.11,158.76,381.02,Single-ply,SBD,M
Boys,82.1,14,Ramon Garcia,Crosby,81.24,129.27,92.99,151.95,374.21,Single-ply,SBD,M
Boys,82.1,15,Dustin Wolf,Conroe The Woodlands,76.88,113.4,70.31,136.08,319.78,Single-ply,SBD,M
Boys,82.1,DQ,Ty Higginbotham,Splendora,75.8,174.63,106.59,,,Single-ply,SBD,M
Boys,99.79,1,Dustin Hoeffler,New Caney Porter,89.95,197.31,133.81,190.51,521.63,Single-ply,SBD,M
Boys,89.81,2,John Neville,Huntsville,88.9,181.44,108.86,204.12,494.42,Single-ply,SBD,M
Boys,89.81,3,Kyle Ray,Splendora,86.41,188.24,115.67,185.97,489.88,Single-ply,SBD,M
Boys,89.81,4,Zak Adams,Splendora,88.63,188.24,115.67,181.44,485.34,Single-ply,SBD,M
Boys,89.81,5,Andrew Danheim,Conroe The Woodlands,83.91,188.24,108.86,174.63,471.74,Single-ply,SBD,M
Boys,89.81,6,Eric Owens,Crosby,87.23,154.22,108.86,174.63,437.72,Single-ply,SBD,M
Boys,89.81,7,Benji Meche,Crosby,84.87,156.49,111.13,163.29,430.91,Single-ply,SBD,M
Boys,89.81,8,Louis Hickman,New Caney Porter,84.96,154.22,99.79,147.42,401.43,Single-ply,SBD,M
Boys,89.81,DQ,Eric Blanco,Splendora,82.64,,,,,Single-ply,SBD,M
Boys,89.81,DQ,Matt Taylor,New Caney,83.01,165.56,,,,Single-ply,SBD,M
Boys,99.79,1,Lorezo Flores,Conroe Caney Creek,96.62,210.92,120.2,204.12,535.24,Single-ply,SBD,M
Boys,99.79,2,Valdermar Hernandez,Crosby,91.63,192.78,124.74,192.78,510.29,Single-ply,SBD,M
Boys,99.79,3,Chad Campagna,Conroe,98.88,199.58,129.27,176.9,505.76,Single-ply,SBD,M
Boys,99.79,4,Chase Nix,Crosby,90.26,174.63,113.4,199.58,487.61,Single-ply,SBD,M
Boys,99.79,5,Mitchell Kight,Willis,97.98,183.7,113.4,188.24,485.34,Single-ply,SBD,M
Boys,99.79,6,Angel Fabela,Conroe,97.07,158.76,97.52,149.69,405.97,Single-ply,SBD,M
Boys,99.79,7,Trent Duncan,Alvin,91.53,156.49,79.38,161.03,396.89,Single-ply,SBD,M
Boys,109.77,1,Bridge Blount,Huntsville,109.32,303.91,181.44,294.84,780.18,Single-ply,SBD,M
Boys,124.74,2,Curtis Emory,Alvin,109.86,260.82,136.08,240.4,637.3,Single-ply,SBD,M
Boys,109.77,3,Connor Greer,Conroe,102.97,217.72,133.81,235.87,587.4,Single-ply,SBD,M
Boys,109.77,4,Treymonte Green,Crosby,107.05,192.78,129.27,192.78,514.83,Single-ply,SBD,M
Boys,109.77,5,Joseph Staggs,Conroe Caney Creek,104.78,167.83,115.67,165.56,449.06,Single-ply,SBD,M
Boys,109.77,DQ,Miguel Fabela,Conroe,100.7,179.17,104.33,,,Single-ply,SBD,M
Boys,109.77,DQ,Taylor Herman,Crosby,106.78,188.24,113.4,,,Single-ply,SBD,M
Boys,124.74,1,Parker Blount,Huntsville,113.08,226.8,108.86,195.04,530.7,Single-ply,SBD,M
Boys,124.74,2,Shannon Standley,Conroe Caney Creek,119.98,222.26,122.47,170.1,514.83,Single-ply,SBD,M
Boys,124.74,3,Tyler Rapp,Conroe The Woodlands,111.13,195.04,120.2,183.7,498.95,Single-ply,SBD,M
Boys,124.74,4,Josh Opiela,Crosby,119.29,192.78,108.86,163.29,464.93,Single-ply,SBD,M
Boys,124.74,DQ,Caleb Ethridge,New Caney,110.22,226.8,165.56,,,Single-ply,SBD,M
Boys,124.74,DQ,Jacob Sanches,Alvin,118.12,204.12,,,,Single-ply,SBD,M
Boys,124.74+,1,Dimitri Carpenter,Conroe,132.95,260.82,158.76,247.21,666.78,Single-ply,SBD,M
Boys,124.74+,2,Kevin Keasling,Shepherd,125.74,204.12,72.57,181.44,458.13,Single-ply,SBD,M
Boys,124.74+,DQ,Mark Poteat,Conroe The Woodlands,166.92,294.84,,,,Single-ply,SBD,M
