Place,Name,CyrillicName,BirthYear,WeightClassKg,BodyweightKg,Best3BenchKg,TotalKg,Event,Equipment,Sex,Division
1,Sofiya Permyakova,София Пермякова,1985,47,43.3,67.5,67.5,B,Single-ply,F,Open
2,Evgeniy Evsyukhina,Евгений Евсюхина,1985,47,45.3,50,50,B,Single-ply,F,Open
3,Irina Verkholamova,Ирина Верхоламова,1981,47,45.5,37.5,37.5,B,Single-ply,F,Open
1,Olga Kulakova,Ольга Кулакова,1999,52,51.1,25,25,B,Single-ply,F,Open
1,Mariya Chibisova,Мария Чибисова,1995,57,57,52.5,52.5,B,Single-ply,F,Open
2,Marina Evseeva,Марина Евсеева,1980,57,54.7,45,45,B,Single-ply,F,Open
3,Viktoriya Bolshakova,Виктория Большакова,2001,57,55.7,45,45,B,Single-ply,F,Open
NS,Nataliya Yurchenkova,Наталия Юрченкова,1990,57,,,,B,Single-ply,F,Open
1,Marina Burmistrova,Марина Бурмистрова,1979,63,61.3,90,90,B,Single-ply,F,Open
2,Anna Vishnevskaya,Анна Вишневская,1987,63,57.6,65,65,B,Single-ply,F,Open
3,Lyubov Yushina,Любовь Юшина,1984,63,61.9,57.5,57.5,B,Single-ply,F,Open
4,Aleksandra Kuznetsova,Александра Кузнецова,1987,63,61.4,35,35,B,Single-ply,F,Open
1,Maria Dubenskaya,Мария Дубенская,1988,72,64.8,152.5,152.5,B,Single-ply,F,Open
2,Zhanna Martynova,Жанна Мартынова,1966,72,65.5,82.5,82.5,B,Single-ply,F,Open
3,Olga Nesterova,Ольга Нестерова,1984,72,66.7,47.5,47.5,B,Single-ply,F,Open
1,Anna Gorodova,Анна Городова,1987,84,72.7,40,40,B,Single-ply,F,Open
1,Svetlana Zelinskaya,Светлана Зелинская,1962,84+,87.2,115,115,B,Single-ply,F,Open
1,Tatyana Podolskaya,Татьяна Подольская,1971,84+,88.4,60,60,B,Single-ply,F,Open
2,Alina Eroshkina,Алина Ерошкина,1997,84+,92.8,32.5,32.5,B,Single-ply,F,Open
1,Oleg Tikhonov,Олег Тихонов,1991,59,58.2,90,90,B,Single-ply,M,Open
2,Norik Sarangyan,Норик Сарангян,1996,59,55.5,82.5,82.5,B,Single-ply,M,Open
3,Vyacheslav Khusainov,Вячеслав Хусаинов,1999,59,56.5,70,70,B,Single-ply,M,Open
4,Daniil Moroz,Даниил Мороз,2001,59,54.3,67.5,67.5,B,Single-ply,M,Open
G,Aleksandr Lipovtsev,Александр Липовцев,2000,59,57.7,65,65,B,Single-ply,M,Open
G,Sergey Novikov,Сергей Новиков,1997,59,53.7,65,65,B,Single-ply,M,Open
1,Aleksandr Gapuzin,Александр Гапузин,1988,66,64.9,135,135,B,Single-ply,M,Open
2,Maksim Vologin,Максим Вологин,1996,66,65.5,127.5,127.5,B,Single-ply,M,Open
3,Konstantin Vidulin,Константин Видулин,1988,66,64.4,117.5,117.5,B,Single-ply,M,Open
4,Artem Kravkov,Артем Кравков,1997,66,65.1,95,95,B,Single-ply,M,Open
5,Ivan Belov,Иван Белов,2000,66,62.3,75,75,B,Single-ply,M,Open
6,Dmitriy Derinov,Дмитрий Деринов,1999,66,61.1,65,65,B,Single-ply,M,Open
1,Sergey Martynov,Сергей Мартынов,1973,74,70.5,185,185,B,Single-ply,M,Open
2,Vasiliy Gorichev,Василий Горичев,1992,74,73.3,140,140,B,Single-ply,M,Open
3,Svyatoslav Panasyuk,Святослав Панасюк,1993,74,73.3,125,125,B,Single-ply,M,Open
4,Nikolay Arkhipov,Николай Архипов,1998,74,73.6,102.5,102.5,B,Single-ply,M,Open
5,Ivan Karnyushin,Иван Карнюшин,1986,74,70,95,95,B,Single-ply,M,Open
6,Pavel Kondakov,Павел Кондаков,1997,74,72.9,95,95,B,Single-ply,M,Open
7,Kirill Fofonov,Кирилл Фофонов,1997,74,66.8,87.5,87.5,B,Single-ply,M,Open
8,Ivan Khokhlov,Иван Хохлов,1998,74,73.8,87.5,87.5,B,Single-ply,M,Open
NS,Aleksey Morozov,Алексей Морозов,1998,74,,,,B,Single-ply,M,Open
NS,Andrey Zhukotonskiy,Андрей Жукотонский,1998,74,,,,B,Single-ply,M,Open
1,Aleksey Fadeev,Алексей Фадеев,1981,83,82.6,210,210,B,Single-ply,M,Open
2,Andrey Marugin,Андрей Маругин,1988,83,83,172.5,172.5,B,Single-ply,M,Open
3,Valeriy Lupikov,Валерий Лупиков,1976,83,82.3,127.5,127.5,B,Single-ply,M,Open
4,Vitaliy Zubarev,Виталий Зубарев,1972,83,81,125,125,B,Single-ply,M,Open
5,Oleg Buyalskiy,Олег Буяльский,1997,83,82.8,115,115,B,Single-ply,M,Open
6,Andrey Leonov,Андрей Леонов,1997,83,82.4,107.5,107.5,B,Single-ply,M,Open
7,Aleksey Ageev,Алексей Агеев,1998,83,78,100,100,B,Single-ply,M,Open
DQ,Nikolay Kurdyubov,Николай Курдюбов,1995,83,75.4,140,,B,Single-ply,M,Open
NS,Andrey Vasilev,Андрей Васильев,1984,83,,,,B,Single-ply,M,Open
NS,Dmitriy Kochura,Дмитрий Кочура,1992,83,,,,B,Single-ply,M,Open
NS,Vladimir Orlov,Владимир Орлов,1985,83,,,,B,Single-ply,M,Open
1,Vladimir Kovalchuk,Владимир Ковальчук,1986,93,92,225,225,B,Single-ply,M,Open
2,Denis Yurkov,Денис Юрков,1983,93,83.2,222.5,222.5,B,Single-ply,M,Open
3,Vladislav Lamokhin,Владислав Ламохин,1978,93,87.1,215,215,B,Single-ply,M,Open
4,Anatoliy Balabaev,Анатолий Балабаев,1991,93,85.9,190,190,B,Single-ply,M,Open
5,Aleksandr Kapitanov,Александр Капитанов,1996,93,88.7,187.5,187.5,B,Single-ply,M,Open
6,Mikhail Matveev,Михаил Матвеев,1994,93,88.3,185,185,B,Single-ply,M,Open
7,Maksim Belyanskiy,Максим Белянский,1983,93,86.2,175,175,B,Single-ply,M,Open
8,Konstantin Podshebyakin,Константин Подшебякин,1970,93,92,155,155,B,Single-ply,M,Open
9,Andrey Epifanov,Андрей Епифанов,1968,93,87.3,155,155,B,Single-ply,M,Open
10,Evgeniy Zimkin,Евгений Зимкин,1990,93,91.1,155,155,B,Single-ply,M,Open
11,Aleksey Zhurkov,Алексей Журков,1985,93,92,145,145,B,Single-ply,M,Open
DQ,Dmitriy Ivanov #54,Дмитрий Иванов,1993,93,91.7,,,B,Single-ply,M,Open
NS,Evgeniy Ivashkin,Евгений Ивашкин,1982,93,,,,B,Single-ply,M,Open
NS,Dmitriy Golovlev,Дмитрий Головлев,1996,93,,,,B,Single-ply,M,Open
NS,Ruslan Pochveruk,Руслан Почверук,1993,93,,,,B,Single-ply,M,Open
NS,Vitaliy Marin,Виталий Марьин,1988,93,,,,B,Single-ply,M,Open
NS,Dmitriy Evteev,Дмитрий Евтеев,1997,93,,,,B,Single-ply,M,Open
1,Sergey Vakhrushin,Сергей Вахрушин,1976,105,104.1,270,270,B,Single-ply,M,Open
2,Aleksandr Nikitichev,Александр Никитичев,1980,105,93.9,230,230,B,Single-ply,M,Open
3,Maksim Veter,Максим Ветер,1987,105,95.5,200,200,B,Single-ply,M,Open
4,Evgeniy Tarasov,Евгений Тарасов,1987,105,103.4,192.5,192.5,B,Single-ply,M,Open
5,Evgeniy Shoshin,Евгений Шошин,1977,105,100.7,170,170,B,Single-ply,M,Open
6,Mikhail Pogoreltsev,Михаил Погорельцев,1986,105,93.9,142.5,142.5,B,Single-ply,M,Open
7,Mikhail Zhuravlev,Михаил Журавлев,1983,105,97.3,137.5,137.5,B,Single-ply,M,Open
8,Denis Imanov,Денис Иманов,1995,105,97.6,135,135,B,Single-ply,M,Open
NS,Igor Makarov,Игорь Макаров,1993,105,,,,B,Single-ply,M,Open
NS,Denis Shichkov,Денис Шичков,1982,105,,,,B,Single-ply,M,Open
NS,Nikolay Leksin,Николай Лексин,1981,105,,,,B,Single-ply,M,Open
1,Vladimir Khryapin,Владимир Хряпин,1990,120,118.5,260,260,B,Single-ply,M,Open
2,Vladimir Kuvaev,Владимир Куваев,1980,120,111.8,250,250,B,Single-ply,M,Open
3,Nikolay Mashtakov,Николай Маштаков,1982,120,109.3,172.5,172.5,B,Single-ply,M,Open
4,Igor Troshin,Игорь Трошин,1983,120,107.8,170,170,B,Single-ply,M,Open
5,Denis Kudyarov,Денис Кудьяров,1986,120,105.2,170,170,B,Single-ply,M,Open
6,Vladimir Golovlev,Владимир Головлев,1987,120,111,170,170,B,Single-ply,M,Open
7,Sergey Paramonov,Сергей Парамонов,1992,120,113.3,140,140,B,Single-ply,M,Open
NS,Ivan Beresnev,Иван Береснев,1994,120,,,,B,Single-ply,M,Open
1,Sergey Gorchakov,Сергей Горчаков,1978,120+,125.5,240,240,B,Single-ply,M,Open
2,Sergey Andreenkov,Сергей Андреенков,1983,120+,140.4,230,230,B,Single-ply,M,Open
NS,Yuriy Vasilev #3,Юрий Васильев,1986,120+,,,,B,Single-ply,M,Open
NS,Aleksey Golubtsov,Алексей Голубцов,1975,120+,,,,B,Single-ply,M,Open
NS,Konstantin Baranov,Константин Баранов,1986,120+,,,,B,Single-ply,M,Open
