Division,WeightClassKg,Place,Name,Team,BodyweightKg,Best3SquatKg,Best3BenchKg,Best3DeadliftKg,TotalKg,Equipment,Event,Sex
Varsity,51.71,1,Robert Gonzalez,Laredo Cigarroa,51.17,113.4,74.84,136.08,324.32,Single-ply,SBD,M
Varsity,51.71,2,Nelson Carmona,Laredo Martin,47.63,117.93,63.5,129.27,310.71,Single-ply,SBD,M
Varsity,55.79,1,Luis Antonio Garcia,Laredo Martin,54.34,106.59,61.23,122.47,290.3,Single-ply,SBD,M
Varsity,55.79,2,Raul Fuentes,Laredo Nixon,52.89,81.65,52.16,106.59,240.4,Single-ply,SBD,M
Varsity,55.79,2,Mario Saldivar,Laredo Alexander,55.79,102.06,65.77,142.88,310.71,Single-ply,SBD,M
Varsity,59.87,1,Omar Barrajas,Laredo United South,59.87,131.54,83.91,136.08,351.53,Single-ply,SBD,M
Varsity,67.13,1,Jonathan Pena,Laredo United South,67.04,215.46,136.08,215.46,566.99,Single-ply,SBD,M
Varsity,67.13,2,Josue Tobias,Laredo Nixon,63.78,185.97,104.33,195.04,485.34,Single-ply,SBD,M
Varsity,67.13,3,Marvin Martinez,Laredo United South,66.22,181.44,108.86,192.78,483.08,Single-ply,SBD,M
Varsity,67.13,4,Hector Garnica,Laredo United South,63.68,147.42,92.99,174.63,415.04,Single-ply,SBD,M
Varsity,74.84,5,Rene Cabrerra,Laredo Cigarroa,67.36,163.29,83.91,136.08,383.29,Single-ply,SBD,M
Varsity,67.13,6,Jonathan Ramirez,Laredo Martin,66.59,142.88,74.84,151.95,369.68,Single-ply,SBD,M
Varsity,67.13,7,Felix Ruiz,Laredo Nixon,61.05,120.2,61.23,136.08,317.51,Single-ply,SBD,M
Varsity,67.13,8,Martin Castillo,Laredo Johnson,62.32,111.13,68.04,136.08,315.25,Single-ply,SBD,M
Varsity,67.13,9,Jesse Ramirez #4,Laredo Alexander,67.04,113.4,65.77,124.74,303.91,Single-ply,SBD,M
Varsity,67.13,DQ,Diego Garcia,Laredo Johnson,66.5,,,,,Single-ply,SBD,M
Varsity,74.84,1,Hector Villarreal,Laredo United South,73.12,183.7,111.13,190.51,485.34,Single-ply,SBD,M
Varsity,82.1,2,Joel Manzo,Laredo Nixon,75.02,170.1,99.79,181.44,451.32,Single-ply,SBD,M
Varsity,74.84,3,Jonathan Brooks,Laredo Martin,74.84,151.95,102.06,190.51,444.52,Single-ply,SBD,M
Varsity,82.1,4,Victor Villarreal,Laredo Martin,75.02,165.56,88.45,183.7,437.72,Single-ply,SBD,M
Varsity,74.84,5,Jesse Boutwell,Laredo Alexander,73.48,142.88,90.72,124.74,358.34,Single-ply,SBD,M
Varsity,74.84,6,Erick Oliva,Laredo Nixon,69.31,74.84,81.65,170.1,326.59,Single-ply,SBD,M
Varsity,74.84,7,Raul Solis,Laredo Cigarroa,72.48,120.2,65.77,136.08,322.05,Single-ply,SBD,M
Varsity,82.1,DQ,Jonathan Valadez,Laredo Johnson,75.02,145.15,,,,Single-ply,SBD,M
Varsity,82.1,1,Yahir Garcia,Laredo United South,77.56,206.38,127.01,226.8,560.19,Single-ply,SBD,M
Varsity,82.1,2,Adrian Castro,Laredo Cigarroa,82.01,181.44,122.47,183.7,487.61,Single-ply,SBD,M
Varsity,82.1,3,Jordan Perez,Laredo United South,77.47,176.9,120.2,183.7,480.81,Single-ply,SBD,M
Varsity,82.1,4,Mark Molina,Laredo Cigarroa,79.38,174.63,92.99,190.51,458.13,Single-ply,SBD,M
Varsity,89.81,5,Jesus Medina,Laredo Johnson,82.28,129.27,106.59,147.42,383.29,Single-ply,SBD,M
Varsity,82.1,6,Leonardo Benavides,Laredo Johnson,75.84,142.88,83.91,136.08,362.87,Single-ply,SBD,M
Varsity,82.1,11,Pablo Huerta,Laredo Alexander,80.56,142.88,97.52,142.88,383.29,Single-ply,SBD,M
Varsity,82.1,DQ,David Garza,Laredo Nixon,77.66,131.54,,,,Single-ply,SBD,M
Varsity,89.81,1,Jose Anaya,Laredo United South,87.09,231.33,113.4,219.99,564.72,Single-ply,SBD,M
Varsity,99.79,2,Hugo Zamora,Laredo Cigarroa,90.04,199.58,142.88,195.04,537.51,Single-ply,SBD,M
Varsity,89.81,3,David Luna,Laredo Johnson,89.81,192.78,120.2,222.26,535.24,Single-ply,SBD,M
Varsity,89.81,4,Omar Galan,Laredo Alexander,87.45,183.7,131.54,197.31,512.56,Single-ply,SBD,M
Varsity,89.81,5,Issac Hernandez,Laredo Martin,87.82,183.7,120.2,192.78,496.68,Single-ply,SBD,M
Varsity,89.81,6,Dominic Rodriguez,Laredo Johnson,85,174.63,108.86,195.04,478.54,Single-ply,SBD,M
Varsity,89.81,7,Matthew Guzman,Laredo Nixon,83.46,179.17,83.91,165.56,428.64,Single-ply,SBD,M
Varsity,89.81,8,Victor Lozano,Laredo Nixon,88.63,161.03,79.38,170.1,410.5,Single-ply,SBD,M
Varsity,89.81,9,Gerardo Espinoza,Laredo Johnson,89.09,145.15,83.91,170.1,399.16,Single-ply,SBD,M
Varsity,89.81,10,Jorge Rios,Laredo Alexander,85.73,136.08,108.86,142.88,387.82,Single-ply,SBD,M
Varsity,89.81,12,Raul Lira,Laredo Johnson,85.91,113.4,83.91,170.1,367.41,Single-ply,SBD,M
Varsity,89.81,13,Edwin Mercado,Laredo Johnson,83.73,129.27,86.18,147.42,362.87,Single-ply,SBD,M
Varsity,89.81,14,Angel Blanco,Laredo Cigarroa,84.55,111.13,90.72,154.22,356.07,Single-ply,SBD,M
Varsity,89.81,DQ,Mariano Valdez,Laredo Cigarroa,86,158.76,,,,Single-ply,SBD,M
Varsity,89.81,DQ,Eloy Soto,Laredo Cigarroa,85.82,142.88,127.01,,,Single-ply,SBD,M
Varsity,89.81,DQ,Valentin Palomares,Laredo Johnson,88.27,190.51,,,,Single-ply,SBD,M
Varsity,99.79,1,Jesus Moreno,Laredo Alexander,97.61,115.67,92.99,142.88,351.53,Single-ply,SBD,M
Varsity,99.79,2,Joel Vedia,Laredo Johnson,97.25,120.2,74.84,147.42,342.46,Single-ply,SBD,M
Varsity,99.79,DQ,Frank Ramos,Laredo Nixon,92.9,136.08,,,,Single-ply,SBD,M
Varsity,109.77,1,Francisco Torrecilla,Laredo Nixon,108.77,219.99,102.06,231.33,553.38,Single-ply,SBD,M
Varsity,109.77,2,Austin Hart,Laredo Alexander,105.14,197.31,113.4,197.31,508.02,Single-ply,SBD,M
Varsity,109.77,3,Erick Gil,Laredo Alexander,101.06,170.1,133.81,176.9,480.81,Single-ply,SBD,M
Varsity,109.77,4,Erik Huerta,Laredo United South,108.14,190.51,104.33,165.56,460.4,Single-ply,SBD,M
Varsity,109.77,5,Eliud Benavides,Laredo Martin,109.77,183.7,111.13,156.49,451.32,Single-ply,SBD,M
Varsity,109.77,6,Amando Castillo,Laredo Alexander,106.59,183.7,124.74,197.31,505.76,Single-ply,SBD,M
Varsity,124.74,1,Carlos Sanchez,Laredo United South,124.56,294.84,149.69,263.08,707.6,Single-ply,SBD,M
Varsity,124.74,2,Guadalupe Gonzalez,Laredo Martin,121.47,183.7,104.33,219.99,508.02,Single-ply,SBD,M
Varsity,124.74,3,Jose Beltran,Laredo Martin,119.48,197.31,111.13,195.04,503.49,Single-ply,SBD,M
Varsity,124.74,4,Efrain Batres,Laredo Martin,122.74,201.85,102.06,192.78,496.68,Single-ply,SBD,M
Varsity,124.74,5,Alex Charcas,Laredo Cigarroa,112.31,183.7,102.06,158.76,444.52,Single-ply,SBD,M
Varsity,124.74+,1,Rudy Flores,Laredo United South,150.23,340.19,238.14,283.5,861.83,Single-ply,SBD,M
Varsity,124.74+,2,Mario Olivares,Laredo Nixon,128.28,224.53,115.67,226.8,566.99,Single-ply,SBD,M
Varsity,124.74+,3,Jose Salvador,Laredo United South,140.52,183.7,151.95,183.7,519.36,Single-ply,SBD,M
Varsity,124.74+,4,Juan Viera,Laredo Johnson,139.62,174.63,108.86,165.56,449.06,Single-ply,SBD,M
Varsity,124.74+,5,Erik Gonzalez #4,Laredo Johnson,137.08,179.17,97.52,142.88,419.57,Single-ply,SBD,M
Varsity,124.74+,6,Marcos Fuentes,Laredo Martin,132.9,156.49,83.91,174.63,415.04,Single-ply,SBD,M
Varsity,124.74+,7,Jocob Reyna,Laredo Cigarroa,127.46,156.49,90.72,165.56,412.77,Single-ply,SBD,M
