Name,WeightClassKg,Division,Best3SquatKg,Best3BenchKg,Best3DeadliftKg,TotalKg,Sex,Event,Equipment,Place,State
Rob Hawkins,75,M-T3,113.4,83.91,147.42,344.73,M,SBD,Single-ply,1,
William Ortiz,82.5,M-M7,92.99,47.63,65.77,206.38,M,SBD,Single-ply,1,
Tim Fitzgibbon,90,M-M4,127.01,79.38,145.15,351.53,M,SBD,Single-ply,1,
Bill Hawkins,100,M-M1,154.22,142.88,167.83,464.93,M,SBD,Single-ply,1,
Scott Striepeke,110,M-M1,213.19,142.88,222.26,578.33,M,SBD,Single-ply,1,
Ian Gonzales,110,M-G,197.31,151.95,215.46,564.72,M,SBD,Single-ply,G,
Don Riley,125,M-O,242.67,161.03,242.67,646.37,M,SBD,Single-ply,1,
Robert Gains,125+,M-G,274.42,201.85,274.42,750.7,M,SBD,Single-ply,G,
Harry Heyman,125+,M-M5,199.58,117.93,201.85,519.36,M,SBD,Single-ply,1,
