Place,Name,CyrillicName,BirthYear,WeightClassKg,BodyweightKg,Best3SquatKg,Best3BenchKg,Best3DeadliftKg,TotalKg,Event,Equipment,Sex,Division
1,Marina Bavrina,Марина Баврина,1996,40,35.4,70,35,70,175,SBD,Single-ply,F,Sub-Juniors
2,Yuliya Gubareva,Юлия Губарева,1996,40,40,65,35,70,170,SBD,Single-ply,F,Sub-Juniors
3,Anastasiya Kletskova,Анастасия Клецкова,1996,40,39.5,70,30,60,160,SBD,Single-ply,F,Sub-Juniors
4,Tatyana Sidorenko,Татьяна Сидоренко,1996,40,37.8,50,25,55,130,SBD,Single-ply,F,Sub-Juniors
1,Yuliya Kust,Юлия Куст,1997,43,41.95,57.5,35,57.5,150,SBD,Single-ply,F,Sub-Juniors
2,Aleksandra Maskevich,Александра Маскевич,1999,43,42.7,37.5,27.5,60,125,SBD,Single-ply,F,Sub-Juniors
3,Marina Kopachyova,Марина Копачёва,2000,43,40.05,42.5,20,45,107.5,SBD,Single-ply,F,Sub-Juniors
4,Veronika Starikova,Вероника Старикова,1996,43,42.65,30,27.5,40,97.5,SBD,Single-ply,F,Sub-Juniors
1,Viktoriya Chernoluzskaya,Виктория Чернолузская,1999,47,47,92.5,47.5,90,230,SBD,Single-ply,F,Sub-Juniors
2,Alina Lyubicheva,Алина Любичева,1996,47,47,100,40,80,220,SBD,Single-ply,F,Sub-Juniors
3,Olga Metelitsa,Ольга Метелица,1996,47,45.6,90,45,80,215,SBD,Single-ply,F,Sub-Juniors
4,Natalya Slepnyova,Наталья Слепнёва,1996,47,46,55,35,70,160,SBD,Single-ply,F,Sub-Juniors
1,Svetlana Kovalyova,Светлана Ковалёва,1999,52,47.8,85,45,100,230,SBD,Single-ply,F,Sub-Juniors
2,Aleksandra Belobrova,Александра Белоброва,1999,52,50.4,80,40,95,215,SBD,Single-ply,F,Sub-Juniors
3,Natalya Prus,Наталья Прус,1997,52,51.95,70,40,85,195,SBD,Single-ply,F,Sub-Juniors
G,Alina Miroshnik,Алина Мирошник,1995,52,52,107.5,42.5,97.5,247.5,SBD,Single-ply,F,Sub-Juniors
1,Kristina Podvoyskaya,Кристина Подвойская,1998,57,54.8,80,30,100,210,SBD,Single-ply,F,Sub-Juniors
2,Viktoriya Laktyushina,Виктория Лактюшина,1999,57,56.35,55,37.5,90,182.5,SBD,Single-ply,F,Sub-Juniors
3,Galina Polyakova,Галина Полякова,2003,57,54.7,45,32.5,55,132.5,SBD,Single-ply,F,Sub-Juniors
4,Anastasiya Rudenko,Анастасия Руденко,1996,57,56.35,40,37.5,50,127.5,SBD,Single-ply,F,Sub-Juniors
1,Yuliya Dovgalyuk,Юлия Довгалюк,1997,63,61.9,77.5,40,85,202.5,SBD,Single-ply,F,Sub-Juniors
2,Marina Beloded,Марина Белодед,1998,63,60.85,52.5,32.5,80,165,SBD,Single-ply,F,Sub-Juniors
3,Anastasiya Patsuk,Анастасия Пацук,1996,63,59.85,50,25,70,145,SBD,Single-ply,F,Sub-Juniors
4,Olga Roshchina,Ольга Рощина,1996,63,60.65,65,25,55,145,SBD,Single-ply,F,Sub-Juniors
1,Ekaterina Zakharcheko,Екатерина Захарчеко,1998,72,68.1,132.5,50,117.5,300,SBD,Single-ply,F,Sub-Juniors
2,Lyubov Rublyova,Любовь Рублёва,1998,72,63.15,35,27.5,80,142.5,SBD,Single-ply,F,Sub-Juniors
3,Nadezhda Tretyakova,Надежда Третьякова,1996,72,65.85,50,25,60,135,SBD,Single-ply,F,Sub-Juniors
4,Mariya Petrushina,Мария Петрушина,1996,72,70.1,55,25,40,120,SBD,Single-ply,F,Sub-Juniors
1,Alina Nikolaenko,Алина Николаенко,1997,84,73.7,150,105,155,410,SBD,Single-ply,F,Sub-Juniors
2,Natalya Tyutyunnik,Наталья Тютюнник,1996,84,73.65,150,100,150,400,SBD,Single-ply,F,Sub-Juniors
3,Yuliya Gladchenko,Юлия Гладченко,1996,84,75,145,65,140,350,SBD,Single-ply,F,Sub-Juniors
4,Svetlana Mikhalenko,Светлана Михаленко,1996,84,76.65,130,55,150,335,SBD,Single-ply,F,Sub-Juniors
1,Viktoriya Emelyanenko,Виктория Емельяненко,1996,84+,84.2,155,100,160,415,SBD,Single-ply,F,Sub-Juniors
2,Tamara Torbik,Тамара Торбик,1996,84+,89.6,150,85,150,385,SBD,Single-ply,F,Sub-Juniors
3,Yana Shelestovskaya,Яна Шелестовская,1996,84+,85,145,100,120,365,SBD,Single-ply,F,Sub-Juniors
4,Valeriya Bogdanovskaya,Валерия Богдановская,1996,84+,84.01,155,80,120,355,SBD,Single-ply,F,Sub-Juniors
1,Aleksey Belimov,Алексей Белимов,2000,48,44.65,90,45,105,240,SBD,Single-ply,M,Sub-Juniors
2,Dmitriy Trunov,Дмитрий Трунов,1999,48,45.1,85,45,105,235,SBD,Single-ply,M,Sub-Juniors
3,Nikolay Belchenko,Николай Бельченко,1998,48,42.7,80,45,90,215,SBD,Single-ply,M,Sub-Juniors
4,Yuriy Shubabko,Юрий Шубабко,2001,48,46,75,45,70,190,SBD,Single-ply,M,Sub-Juniors
5,Denis Belimov,Денис Белимов,2004,48,42.45,27.5,22.5,50,100,SBD,Single-ply,M,Sub-Juniors
6,Aleksandr Mativosyan,Александр Мативосян,1996,48,47.65,35,22.5,40,97.5,SBD,Single-ply,M,Sub-Juniors
1,Maksim Kozichev,Максим Козичев,1999,53,51.8,132.5,72.5,135,340,SBD,Single-ply,M,Sub-Juniors
2,Leonid Masenkov,Леонид Масенков,1999,53,51.65,105,60,122.5,287.5,SBD,Single-ply,M,Sub-Juniors
3,Maksim Kagantsov,Максим Каганцов,2000,53,51.35,105,52.5,125,282.5,SBD,Single-ply,M,Sub-Juniors
4,Artyom Romanenko,Артём Романенко,2000,53,50.45,77.5,52.5,90,220,SBD,Single-ply,M,Sub-Juniors
5,Pavel Ivashkin,Павел Ивашкин,1998,53,52.8,75,60,80,215,SBD,Single-ply,M,Sub-Juniors
DQ,Aram Petrosyan,Арам Петросян,1996,53,52.4,,,,,SBD,Single-ply,M,Sub-Juniors
1,Nikita Makridenko,Никита Макриденко,1997,59,57.65,140,85,180,405,SBD,Single-ply,M,Sub-Juniors
2,Vadim Samusenko,Вадим Самусенко,1997,59,56.65,130,90,160,380,SBD,Single-ply,M,Sub-Juniors
3,Ivn Ryabtsev,Ивн Рябцев,1998,59,56,127.5,77.5,150,355,SBD,Single-ply,M,Sub-Juniors
4,Vladislav Lukyanenko,Владислав Лукьяненко,1998,59,57.1,125,82.5,140,347.5,SBD,Single-ply,M,Sub-Juniors
5,Sergey Borisenkov,Сергей Борисенков,1996,59,58.9,120,77.5,150,347.5,SBD,Single-ply,M,Sub-Juniors
6,Iva Shilov,Ива Шилов,1998,59,57.6,120,60,147.5,327.5,SBD,Single-ply,M,Sub-Juniors
7,Maksim Polyakov,Максим Поляков,1996,59,57.4,115,77.5,127.5,320,SBD,Single-ply,M,Sub-Juniors
8,Ibragim Ovchinkin,Ибрагим Овчинкин,1997,59,58.85,95,50,115,260,SBD,Single-ply,M,Sub-Juniors
DQ,Yuriy Chernyak,Юрий Черняк,1998,59,54.4,,,,,SBD,Single-ply,M,Sub-Juniors
DQ,Evgeniy Kotov,Евгений Котов,1998,59,55.65,,,,,SBD,Single-ply,M,Sub-Juniors
1,Nikita Zaporozhets,Никита Запорожец,1998,66,65.1,160,97.5,175,432.5,SBD,Single-ply,M,Sub-Juniors
2,Nikolay Savchenko,Николай Савченко,1997,66,64.7,145,75,205,425,SBD,Single-ply,M,Sub-Juniors
3,Vladimir Zavyalov,Владимир Завьялов,1996,66,63.35,135,95,147.5,377.5,SBD,Single-ply,M,Sub-Juniors
4,Vladislav Lobosok,Владислав Лобосок,1997,66,65.15,110,90,162.5,362.5,SBD,Single-ply,M,Sub-Juniors
5,Andrey Chausov,Андрей Чаусов,1998,66,65.95,120,82.5,120,322.5,SBD,Single-ply,M,Sub-Juniors
6,Oleg Syrokvasha,Олег Сырокваша,1997,66,63.9,90,57.5,130,277.5,SBD,Single-ply,M,Sub-Juniors
DQ,Kirill Markin,Кирилл Маркин,1999,66,64.25,,,,,SBD,Single-ply,M,Sub-Juniors
1,Sergey Ostrikov,Сергей Остриков,1997,74,71.1,200,115,200,515,SBD,Single-ply,M,Sub-Juniors
2,Dmitriy Chernoluzskiy,Дмитрий Чернолузский,1996,74,69.25,192.5,95,180,467.5,SBD,Single-ply,M,Sub-Juniors
3,Ilya Karpikov,Илья Карпиков,1997,74,71.3,185,92.5,165,442.5,SBD,Single-ply,M,Sub-Juniors
4,Andrey Ryndin,Андрей Рындин,1998,74,70.25,147.5,87.5,187.5,422.5,SBD,Single-ply,M,Sub-Juniors
5,Roman Fedosenko,Роман Федосенко,1998,74,66.65,145,85,145,375,SBD,Single-ply,M,Sub-Juniors
6,Denis Ladik,Денис Ладик,1996,74,68.25,135,85,150,370,SBD,Single-ply,M,Sub-Juniors
7,Dmitriy Sverdyolko,Дмитрий Свердёлко,1996,74,70.35,95,77.5,150,322.5,SBD,Single-ply,M,Sub-Juniors
1,Vladislav Kovalyov,Владислав Ковалёв,1996,83,83,250,150,270,670,SBD,Single-ply,M,Sub-Juniors
2,Dmitriy Krivonosov,Дмитрий Кривоносов,1997,83,76.5,155,90,185,430,SBD,Single-ply,M,Sub-Juniors
3,Nikolay Gurin,Николай Гурин,1996,83,78.35,150,100,160,410,SBD,Single-ply,M,Sub-Juniors
DQ,Aleksandr Zadeev,Александр Задеев,1996,83,79.2,,,,,SBD,Single-ply,M,Sub-Juniors
DQ,Vyacheslav Privolnev,Вячеслав Привольнев,1997,83,79.2,,,,,SBD,Single-ply,M,Sub-Juniors
1,Ivan Moiseenko,Иван Моисеенко,1997,93,90.65,225,145,210,580,SBD,Single-ply,M,Sub-Juniors
2,Maksim Shunkov,Максим Шуньков,1999,93,91.4,120,80,150,350,SBD,Single-ply,M,Sub-Juniors
3,Vyacheslav Kazakov,Вячеслав Казаков,1996,93,84.5,110,80,140,330,SBD,Single-ply,M,Sub-Juniors
DQ,Aleksey Nochkin,Алексей Ночкин,1996,93,89.45,,,,,SBD,Single-ply,M,Sub-Juniors
1,Aleksandr Aksenov,Александр Аксенов,1997,105,93.45,225,125,215,565,SBD,Single-ply,M,Sub-Juniors
2,Daniil Pototskiy,Даниил Потоцкий,1997,105,98.3,177.5,107.5,182.5,467.5,SBD,Single-ply,M,Sub-Juniors
3,Stanislav Terentev,Станислав Терентьев,1997,105,102.2,140,105,192.5,437.5,SBD,Single-ply,M,Sub-Juniors
4,Nikita Styopin,Никита Стёпин,1999,105,96.7,115,72.5,125,312.5,SBD,Single-ply,M,Sub-Juniors
1,Aleksandr Antipenkov,Александр Антипенков,1997,120,106,110,75,135,320,SBD,Single-ply,M,Sub-Juniors
2,Valeriy Shashero,Валерий Шашеро,1996,120,108.3,110,70,130,310,SBD,Single-ply,M,Sub-Juniors
3,Aleksey Zhukov,Алексей Жуков,1996,120,110,120,50,120,290,SBD,Single-ply,M,Sub-Juniors
4,Aleksandr Babich,Александр Бабич,1997,120,106.85,130,50,100,280,SBD,Single-ply,M,Sub-Juniors
1,Vadim Pimakhov,Вадим Пимахов,1996,120+,125,170,125,160,455,SBD,Single-ply,M,Sub-Juniors
2,Valeriy Protasov,Валерий Протасов,1996,120+,121.3,165,120,155,440,SBD,Single-ply,M,Sub-Juniors
3,Oleg Tolkachyov,Олег Толкачёв,1996,120+,120.85,150,120,155,425,SBD,Single-ply,M,Sub-Juniors
4,Vitaliy Vinichenko,Виталий Виниченко,1997,120+,127.3,100,80,100,280,SBD,Single-ply,M,Sub-Juniors
