Name,WeightClassKg,Division,Best3SquatKg,Best3BenchKg,Best3DeadliftKg,TotalKg,Sex,Event,Equipment,Place,State
Andrea Anderson,90+,F-O,84.82,,140.16,,F,SBD,Single-ply,DQ,
Adam Woods,60,M-O,97.52,64.86,165.11,327.49,M,SBD,Single-ply,1,
Nicholas Miceli,82.5,M-O,137.44,140.16,182.34,459.94,M,SBD,Single-ply,1,
Bill Schmidt,90,M-O,274.88,185.07,294.84,754.78,M,SBD,Single-ply,1,
Bill Schmidt,90,M-M1,274.88,185.07,294.84,754.78,M,SBD,Single-ply,1,
Todd Shelton,90,M-O,244.94,192.32,292.57,729.83,M,SBD,Single-ply,2,
Buddy Nichols,90,M-M1,264.9,182.34,254.92,702.16,M,SBD,Single-ply,2,
Adam English,90,M-T2,217.72,152.41,252.65,622.78,M,SBD,Single-ply,1,
Stephen Jordan,90,M-T2,142.43,137.44,182.34,462.21,M,SBD,Single-ply,2,
Vogi Sumner,90,M-M4,115.21,122.47,160.12,397.8,M,SBD,Single-ply,1,
Kurt Hall,110,M-M2,227.7,190.06,244.94,662.7,M,SBD,Single-ply,1,
Marshall Lewis,110,M-M5,227.7,147.42,227.7,602.82,M,SBD,Single-ply,1,
Thomas Jenkins,110,M-O,200.03,160.12,200.03,560.19,M,SBD,Single-ply,1,
Geoff Dolan,125+,M-G,319.78,200.03,319.78,839.6,M,SBD,Single-ply,G,
Wilbert Jones,52,M-O,,79.83,,79.83,M,B,Single-ply,1,
Adam Woods,60,M-O,,64.86,,64.86,M,B,Single-ply,1,
Rob Wess,67.5,M-M1,,120.2,,120.2,M,B,Single-ply,1,
Demetrius Maoury,75,M-O,,,,,M,B,Single-ply,DQ,
Ron Sutton,82.5,M-M1,,99.79,,99.79,M,B,Single-ply,1,
Vogi Sumner,90,M-M4,,122.47,,122.47,M,B,Single-ply,1,
John Deramus,100,M-M3,,72.57,,72.57,M,B,Single-ply,1,
Thomas Jenkins,110,M-O,,160.12,,160.12,M,B,Single-ply,1,
Andre Gilliam,125,M-O,,274.88,,274.88,M,B,Single-ply,1,
Maurice Washington,125+,M-O,,215,,215,M,B,Single-ply,1,
