Name,WeightClassKg,Division,Best3SquatKg,Best3BenchKg,Best3DeadliftKg,TotalKg,Sex,Event,Equipment,Place,State,Age
Deborah Harney,48,F-M3,61.23,45.36,70.31,176.9,F,SBD,Single-ply,1,,
Elizabeth Harney,56,F-T2,81.65,38.56,108.86,229.06,F,SBD,Single-ply,1,,
Tamara Davis,90,F-O,95.25,52.16,90.72,238.14,F,SBD,Single-ply,1,,
Doug Gregg,82.5,M-M3,204.12,106.59,206.38,517.1,M,SBD,Single-ply,1,,
Floyd Frank,90,M-M2,170.1,136.08,204.12,510.29,M,SBD,Single-ply,1,,
